id,first_name,last_name,age
0da9d2d0-0920-40b6-9887-b124fc6f4e13,Tucky,Janiak,29
f0909dd6-34cb-4e16-96de-b3ff2764d8f3,Morgan,Durant,48
a6ae8d6d-b87b-4954-b17e-3975437344cc,Cherise,Shelbourne,32
328b22c6-b3f1-4a56-b3fe-e41da772e33b,Verine,Stockton,21
1dcadda3-40d6-45c3-a1b4-a1ac5302d41c,Alameda,Skey,32
6c04d7a5-1cbe-430c-b367-8eeeda1f4aa6,Amanda,Lambden,32
43480514-464b-4723-9196-8dae5fb152ee,Alexandr,Collingwood,46
967e823d-0134-48dc-92e7-4f03fbd8993d,Karylin,Tilsley,32
840cdf23-27e3-449a-abe2-4caf4eecca4d,Douglass,Brettle,28
afe724b9-b8ad-499d-ad9e-8e09022fedb3,Tobiah,MacGillacolm,21
d2098fc2-3d9b-4612-a40f-5520dc11f14b,Lezlie,Gilstin,36
96c5553e-249b-428f-987b-b394db184653,Cullie,O'Donoghue,37
581aca0b-3f69-4704-ab65-baff42f00171,Ogdan,Jaulme,30
81357cdf-306b-4b5f-8297-a43ea9c34550,Udell,Saddington,43
6cd8ee3e-0235-43b6-a11c-393f24bbc109,Roobbie,Finan,45
b008c3c3-d3ca-4337-85ba-e9b8f859c3f4,Corrinne,Desborough,38
e2bc3100-d0fd-4f9b-bc3b-daaf2932ade8,Dewitt,Kaasmann,33
1e5f1afa-a28a-4012-83ad-db87fb857402,Fax,Luberti,26
b4de71c3-feb1-41f4-ab33-7a0ca578ae2f,Carolin,Diggell,23
e1716701-f1be-4d37-8b41-e6543571ea4a,Tandi,Wadesworth,47
9213e1d6-f739-4a63-a058-f4ffe5ca88b6,Brunhilda,Bourdon,36
c924b5f5-51b9-4264-8cb4-f95ec016791e,Marlowe,Firth,29
adafb440-d57d-453e-9db2-6f47a7772e14,Mateo,Greenrodd,46
87472e77-00bf-4bd4-b5bd-064b1c51ce0b,Nanette,Gepson,41
dfc41d70-8fb8-4793-9090-c8044f4dc0ef,Pepe,Cole,20
5310f9f7-1b5c-44ae-833b-866f834df733,Nellie,Tetley,20
459be402-ac32-4e18-a624-e6241be8ddcc,Breena,Velden,34
64a57d50-8667-47ab-b685-3d94a994f23f,Hendrik,Eadon,50
b1f1e973-a960-43e1-8d19-5f081b69b8b5,Conan,Vincent,23
d88c6914-22a8-4146-b8c5-865a3494e6b3,Sebastiano,Toffano,29
6ce9205c-2330-48e6-a6c2-c74b903721df,Ira,Shawell,27
6abae200-a6dd-4397-837d-b31538b22ebe,Mara,Spatoni,24
113c9bf8-4dbb-4fbc-a1fd-ec9fb5c4effb,Pauly,Stenett,21
c19496d0-ff54-4aea-8af6-86f2b5d7468a,Britt,Raynor,37
569feafa-425a-4cbd-9750-b3cdd5a2e598,Dehlia,Felce,49
22a81859-f4ff-4845-a33e-9a7626b07374,Kath,Whal,18
e5f02855-78fc-4752-ae5a-3d92b86d5898,Corine,Heineken,45
0c74c4b5-c294-4edb-8fd7-bc055787ea5d,Janine,Sargent,38
b926fba9-5275-4858-b828-17677672f4b9,Sheelah,Rubenchik,32
dd6e8296-d947-44de-8573-656bfbe6cb41,Waverly,Pym,42
8c1225ac-098d-4c2b-a16e-444f18743ea9,Weider,McKiddin,43
289af27b-9b4c-420e-bb2f-752b599d9f34,Erika,Sokill,31
0965d1da-bb32-4ef4-99a5-b20a051fa5fd,Jilly,A'field,27
eea16849-92b2-4039-a750-556bc1e187d5,Ryan,De Pietri,21
307c3fb1-9ce5-4399-bdc8-31c2fcbcc638,Patrice,Lindenbluth,24
f81f82cf-f65f-4409-ad9d-eaddbc93d51a,Mace,Penhall,46
a1d1797f-8c9a-4cf8-96ac-db1d31cdbd9e,Dorri,Calbaithe,47
e09d8485-f550-45d1-96e0-ee37cd8981dd,Pieter,Bicknell,40
0e30102b-b4e3-4ce4-841f-ad08204d7a7e,Gibb,Petracchi,42
27bcc6de-3539-45c2-b913-144fdd129b22,Margo,Cantillion,20
af83b4b0-e1c1-42be-a8fe-4ba3b905d460,Kanya,MacLaverty,22
bda3c61e-43eb-40c8-98aa-5b030cd7ed51,Frasquito,Linnell,20
1e67d487-7a4f-4a8d-802c-583d9918cfbf,Nerissa,Rumens,40
6be572e2-60af-4d34-a4a0-f34522d71b56,Beau,Gurnell,30
253ca296-2905-4d2b-9a19-4c193685ee7f,Marcelia,Sayes,24
8ade858e-0d32-4650-8499-e05b78754991,Albertina,Allflatt,41
c328fa05-3cf3-48bf-913c-a774d28cdafc,Ed,Cornwall,37
26ebf3b7-ef2e-40d7-a809-7153e4b04806,Cristine,O'Scollain,29
ddd8623b-1f42-4a85-b252-8adbd638e6bd,Gunner,Jope,48
a417b2fa-c488-4bce-9ebe-f5e977df1eae,Noelle,Domanek,45
7b16f678-1830-443c-b9b0-064079ef326b,Keane,Dorsett,24
b631758d-d299-4c0c-abba-a0f23320d9dd,Lindsy,Ellett,37
2533ee5b-b590-44b2-91b2-7cf200a99dc7,Fay,Duddan,21
3ef56184-75a7-423b-a1c8-42d5dea686f0,Dalton,O'Scully,20
cd684214-67b0-408e-ad71-6c7e36ffd1d4,Cosimo,Ainge,46
714f92b5-b8ce-40d2-9bfc-e4a21b6e8517,Lanita,Aldhous,40
1c0ba170-26d1-4400-a5bd-e9c9d6198933,Audy,Orford,19
34bf43af-72b5-4d9c-8619-8287d08e4249,Vernor,Petherick,48
73488fcd-a238-46df-a0aa-76ebf8299b00,Pinchas,Hulse,34
5dcce5f8-c677-4362-a1e2-53ecebe5bb18,Lexis,Brahan,22
5fca716b-4e04-4a10-bbb6-4b7c39b77031,Tova,Elsie,38
4685c8b5-87fe-4821-82d6-0445cba8a481,Kahaleel,Irons,28
31cc9866-0bfe-459a-a943-3b5e35c47f4a,Chrotoem,Crosfeld,31
eb87e4b3-ee77-4a60-9e77-40003d0f4678,Idelle,Abramovitch,48
73fbd908-43e3-43a9-be92-992b9766c044,Alister,Awcoate,38
1f192129-5d7e-41e3-9d0a-6ecc23e98f1e,Barnabe,Rollings,50
388e48df-d7b8-4013-91f8-195d05237d04,Ollie,Wicken,22
1dcf5099-6083-4da1-b104-8db32d134706,Kristofer,Goodban,29
a1d6f4e7-ce76-4e3b-8409-f2416d24b671,Michale,Kedward,32
e9cd74b0-d841-4d14-aa4d-36f906d6007d,Riva,Latty,27
c934013b-d2d7-4581-94eb-be038467c55a,Tonnie,Pringley,31
979bf5ae-d008-4b9f-a862-95012b701e19,Welbie,Grzelewski,44
3c300c81-b290-4541-b0ac-43db2a960fdf,Riccardo,Pimlett,27
b681d599-0e11-474f-ba88-07317b32b42c,Madelin,Dimbleby,28
9cc546d3-11b2-4e85-bcf8-a54768e06587,Gunar,Greenlies,21
c351b02d-4ff9-4dd2-9342-34a4b097a938,Vanessa,Gleeson,35
a70035c1-ed06-4e25-b588-945b55a3250b,Baily,Fyrth,27
d3e1c709-2069-42aa-9adb-a5aed08ce226,Wilek,Ashbridge,25
0a193d2f-d11f-49e2-a59f-6431dddea2c5,Della,Quinevan,38
dbab3948-4a3f-4e0f-8ad6-ee98b62b6962,Manuel,Mountlow,35
eece4375-d7d9-4760-a7aa-5d66c0fd395d,Ingmar,Ceci,38
7db96763-681e-477c-b813-81893a3d5d07,Sergeant,Purdy,41
9eaef2d6-d3a7-44c8-9d86-9f27d5964ae2,Fran,Vosse,37
b1b5de40-face-4a91-a701-39290fcfae35,Emmaline,Aicken,26
ca54a3f5-b6ee-409d-9bb1-b94d476f8279,Aguie,Prozescky,18
ecf4e595-c49d-4ab5-b5c0-87812aa43c38,Belle,Derye-Barrett,33
78cdb016-a6a7-4c3b-ba28-86e77106516b,Johnna,Burbidge,47
3bf58c26-c6fe-4ba6-a07c-453ef3b5ed21,Moina,Tansey,34
165cb942-c6fc-4754-9b2c-ce9f9214c6d3,Xylina,Fydoe,19
7c6a3b3d-8c38-4b79-a68f-29607de804a6,Trueman,Roggerone,36
28743379-bbeb-4ca6-b2c6-3a26f23590ac,Jessey,Derrick,46
b6c75b95-de9a-4593-ad58-fafd7a60ecd2,Mureil,Biagi,48
f73a02af-2d48-4b12-a0f6-7303aca77e15,Rivalee,Geldeford,39
2f7db40e-9a75-4c10-b62a-d6db8eb2f13d,Gardner,Redford,42
120baa0a-59cf-4c19-a15c-0a0ae4068b68,Rebekkah,Ambrosi,40
fba74930-d85c-4ecc-b6ee-a0b70e5c8e36,Keven,McGrane,28
4a8274cc-e176-44da-9dc3-f4ccd93af06a,Clarissa,Fennelly,24
32106ff9-fdb2-493e-8dc5-d273b0ebc087,Elisha,Bruin,46
951e1340-591c-4a0d-8f1a-b2c8d5363782,Ogdon,Adshed,49
6169c140-862b-4704-981a-140aadf7f30f,Aloisia,MacVicar,34
069f212a-15c6-4776-b6ad-4ff497c17f3e,Dasha,Redfield,26
58d4c9ef-6134-4e0f-9792-ecf8887ad9d0,Genevieve,Chismon,46
e4703191-61cf-4411-a78a-89da4b8b9e95,Lesley,Autry,34
b35ebca9-acd9-4bab-adf5-37cdbedf1248,Beryle,McAughtry,25
b49bd459-265c-4751-b04c-399a1a6d967e,Nyssa,Harvey,47
931cb8d4-6759-46e0-b66a-2d1ea07a7dda,Elwood,Guye,26
669ff885-39fb-4254-871a-f18e1618a38f,Ware,Fleming,48
da8b342f-def6-4bb4-8b9b-cdb61f14f9bd,Ricard,Byron,43
a049bcbf-cae4-41de-9341-73ffc82bd840,Aggi,Dall,50
962a83d9-42fb-4df9-842a-097e34e86fe4,Cirillo,Diviney,18
6d94f15e-4938-47e9-ac4c-edec8e9e5843,Fredericka,Cantwell,47
068fefa0-b6f2-4331-9073-e81e3253dfe8,Rozina,Brough,25
5d607c7b-02e5-4105-a02d-3beed0fd20d3,Cary,Geoghegan,50
dba1a91f-f3d7-4e7c-9433-34d419a55acc,Sybyl,Dendle,26
ec886b5f-8b5b-48df-82cd-e1f673233985,Pietrek,Castana,19
a3b8101c-aa48-41a4-a9ea-a3c697141c88,Chester,Bruggen,23
fa83ed67-28b1-44a6-93c6-590ece5b1de8,Garret,Palke,33
8cbc0748-8662-4eaf-b151-bdde881b45f8,Greta,Jedrychowski,22
94ce7464-0504-475b-8458-f12e3036fe0b,Daisy,Peplay,30
6d881fe0-54f7-4123-b7c7-7f768dfe6383,Allina,Balke,45
6a84f146-2f7f-4f40-bc49-88998872a403,Arv,Mintoff,29
94583e87-1f08-400d-9b7a-d86aad0ac6b2,Adela,Dimitrov,32
e8e856df-f64f-498d-908c-e281d1f41eb4,Esme,Ives,42
3cc61a63-e07f-4d03-9ea0-31b34f1d2b77,Everett,Deinert,39
656518c1-38ca-4253-9623-60f635e4e35e,Desmond,Halgarth,50
49cd7a0a-3d39-4d25-86ed-e7aba6f49a9e,Vaughan,Billitteri,30
10e960cf-ac0a-408f-a0b7-ae0f74cfc054,Tootsie,Egdale,30
cb8e387c-2bc6-4d2e-985c-d8b1fae75a7c,Delcina,Kennon,45
d889f5c3-a320-4c70-8dfc-e0a484a05682,Nessy,Blunden,47
ab78f71c-4bed-4d05-bcee-44bcb2a37af9,Elnora,Ply,34
25a24441-12ee-46e9-88e6-1c0e6df84e12,Orren,Spencley,46
74e924e0-4afc-4751-9cc7-8158a0c5d585,Cordelia,Thistleton,26
ab7ff09e-a125-4a35-8bd7-953d01ce6add,Mallory,Tuminelli,49
e0912e88-9486-466a-8ce4-d7dd1bf9ecbd,Hashim,McCue,49
524e912f-ab57-4883-8dee-3f215cb0d8d3,Mano,Cleere,36
230cbbe6-ab80-4182-adce-97657adc9313,Cherie,Kingsnorth,27
ceb45dfa-dc1e-4099-a4b5-02f453a549cb,Glennie,Petre,47
aa3e4760-b428-4e01-aab5-52141ae2e035,Sancho,Morigan,22
37f63d1a-8e80-4848-8b1f-367dfea2326d,Ginger,Armit,31
6bd85290-e993-4c31-ad6f-bc5964d923ab,Arty,Stollman,40
c0153322-1507-448c-aaf8-756eef6af115,Hermy,Dudleston,25
e91e0f89-5d10-4592-89f6-62113a77329a,Lark,Kirgan,31
143b4a64-368c-4950-b35e-42f23702addf,Virgina,Malam,33
aa1f43bd-0bc8-49ef-9ee9-9470913564b1,Shayne,Nerheny,27
a4f00c79-e1ed-4ecc-8e9c-101481328beb,Albert,Fulford,41
7399f09c-7560-4bf9-9502-666a16d01938,Ketty,Butterfill,18
94f7debf-0255-415c-a6c5-7d2d7f74fc2d,Marcille,Arangy,19
b4c62be6-dbd5-46a3-9e9c-a414a8b774e7,Enrichetta,Geldeford,21
eb5ef368-f4d6-4aeb-b024-475a33ecf91a,Hillel,Geere,39
f1c519f3-c144-41fe-b694-e5af3f963223,Lou,Perotti,41
d80cfc17-9300-46e8-8de8-9db50bad2a80,Godfree,Bampfield,26
bb7366da-1b8b-4232-900f-f083cc2d10ff,Orazio,Carlan,50
b176284f-6812-447c-b862-4c410cb9b1e2,Wake,Triswell,43
26a1b2e4-e2b0-4d2e-a328-f9d75f81eeca,Iago,Favell,33
58872b36-aee3-4aa0-ba2d-a976410a592c,Abrahan,Pargiter,35
d45ef045-b894-44c1-9d7e-9bb158f76a9c,Madeleine,Di Biagio,38
09e20ad6-df98-41b2-8894-15ccd551ccdb,Catharina,Atton,33
fed8e459-a205-4f44-a406-36d2e0a6d0b8,Ardys,Jirsa,32
44299cf9-ba5a-4620-abb6-5b4d01efb475,Fayre,Bartozzi,31
c0d24e51-9b46-4e56-8cb3-6e4851e08f36,Wendi,Buston,20
46482254-8d3d-4e83-a753-4a3888591a22,Carlita,Fishburn,45
030addf6-b37b-4d00-bb06-e127c92c0fed,Hector,Squibb,33
75f56acf-73eb-4398-b760-ce2285e23314,Annora,Beccles,21
af6ccf16-e02e-408e-9658-4caeb1da08fb,Winifred,Rapo,37
d9cac61f-478c-49a2-a54b-2b66c204edeb,Nevile,Oddy,24
7a3e3630-cdc1-412a-9f76-8b4482f45045,Wendi,Munkley,37
ec20ce96-22d9-47d8-a7cc-598973e934f4,Maitilde,MacNucator,36
fb6e7d4c-8693-4722-9479-bf82f84809f7,Jemimah,Marquiss,43
6bc25602-1e2a-4b3c-a005-a80b2e399470,Madelena,Tanzig,44
996c2f6f-d92e-462a-97ba-1bfc8275e2a9,Leeanne,Carnalan,21
b7fab568-369e-4372-87dc-8fc025eac0ae,Patrizio,Hutchence,37
655bb3d0-b60e-450d-9ece-3f8d36aa528e,Therine,Graysmark,27
2890401e-fc81-4970-b159-fdf3fc398ce4,Jordain,Andrysek,39
6d3f7583-9899-456a-afd3-202dc66e6812,Davey,Del Castello,21
583e0ca4-fd33-41bf-a85c-1bf02eb43f86,Saunders,Raitie,31
cb0a1383-d62f-4e29-8b47-6bb0cb9ff144,Paul,Maplestone,26
7dd5b9e2-9f27-4b54-ab64-4cb764deb189,Babita,Mc Ilwrick,41
f99a300b-7f8c-49d8-a153-10461a7d5238,Eveleen,Parkeson,42
f0f3fdae-90b2-4ab6-824a-e714de638a3c,Scot,Carbett,39
bbfcad15-2371-4263-b22b-abc91245cd60,Debbie,Copin,45
d7b10f71-19aa-4e81-afb3-a0855d025ed6,Melisent,Siggins,22
79561a97-8512-427a-b32e-a621ff781170,Justinian,Brearty,31
fe9a3820-f14e-4bd4-be92-8d9848849794,Camala,Rainford,30
37af05a1-9a93-43b5-84e7-8512fd75d869,Kennan,Bootton,30
ab55f76a-630f-4367-b702-03b10982d1f4,Winny,Russe,41
430df6c5-8779-4aad-be37-42ed5b65442c,Terri,Espinosa,37
7ae0e3e3-afe1-4ade-87fe-205735cb7e47,Freda,Thrussell,20
136ef653-ab95-4d73-a9bd-49011985864c,Estrellita,Andreazzi,43
d91c09ef-63ad-4494-a991-2955fdb751ec,Malachi,Ertelt,40
6a7a292c-d77e-4e02-b81a-4a96fd08128c,Karolina,Gourdon,26
7b4ca9a5-d833-4d60-8903-8781a3425e0c,Claiborne,Serris,35
a8d0d333-2d8f-4750-9dfe-3ffc30f676f9,Kacie,de Verson,41
6697f56d-1485-4003-b467-e5edb6a0f332,Jewel,Keane,21
612bd2fb-8904-4950-9fd6-33ea8507cb9a,Kelly,Rembaud,46
9f15f9a5-ac5b-4c37-b0a0-dbbcf709274f,Garik,Kilty,45
aadfb3eb-7d18-4efd-9bca-fa49746db1df,Der,Betho,47
704bcf91-621a-4c2c-88ee-fef0ac68d8c6,Kale,Rosario,35
af000b05-8dee-4c66-8a79-0424b1ccdbe0,Karil,Grinaway,38
35beb388-d7fc-4bcd-b82e-663b12f00df2,Reuben,Kirmond,49
b8f9418d-8d67-41f3-9b75-cd57d52f9c6f,Kora,Brame,25
de2748b6-b876-4dcb-aace-2f0b669f988f,Lacee,Seabourne,21
16c5710c-2e2b-48e6-a2e4-b648ccb0a6d8,Sheree,Jeves,32
b8a8f08d-0642-4389-ba9a-0a783298dd8b,Sayre,Sainz,19
aa38586e-f734-41a5-a194-8c040ea49d8e,Clarance,Crissil,24
16bacc0b-4666-445a-8c5a-f764a440ec6a,Nettie,Brewis,50
fbdf4d03-5f87-486a-9ba9-7313a9db5e74,Gib,Zukerman,33
6b78b9aa-0a6e-4584-ae25-3e5a56273b8c,Marji,Toghill,40
d4a99534-18d7-4478-b120-83f005bcc23f,Nanny,Chesshire,26
e8938e87-304a-45cc-94d7-2dbc15bdc74a,Aline,Francescuccio,27
d36ff352-6d6e-4a58-a787-35f0c061480d,Zelda,Kyne,30
462b8380-2070-450e-ba24-2428aad55cb7,Dode,O'Deoran,33
47d3b815-8f35-4a82-bc3c-8a5663e14cd2,Jacinthe,Silcock,30
89ab9c5c-c2b3-4461-846e-ef56c5d60ebb,Puff,Venart,27
e0e11992-4c27-4163-99a5-de2e9772742b,Worden,Jeratt,45
f2cb5d13-4396-432e-bb2a-005f15664597,Chrissy,O'Shee,24
75831533-89a8-4bf0-abad-86b83d9cda2b,Madelina,Combes,44
6bfad0c5-bbf4-4027-a1d4-f69ac0c8ce18,Moria,Tredger,42
497cf24b-f657-441b-8026-7796d129f4de,Costanza,MacVay,46
a03b8728-6486-4bc8-aef2-2ef26488d208,Rufus,Hayesman,47
9bb34f25-f8e9-4cee-93b3-316ce0ef5270,Gayle,Derington,33
55a5be39-be02-421a-9d91-70228074ca7f,Berkeley,Astlet,31
7c874f28-f6bd-497b-a6b9-cc8aa6c10491,De,Nannini,28
bcca9d9e-3b14-4e10-8874-0fe5da7a96ea,Daryn,Plumm,26
5a0eca22-430f-4bf0-8848-abff492066cc,Murdock,Casaccio,48
97d8e436-ed44-41bf-8be7-956ae2f79967,Sapphire,Blonden,49
3a648087-b54c-4055-a7b7-7d910868586d,Barbabra,McBratney,21
1d1bcad8-f2a3-4280-a261-2d81752878fb,Dickie,Joncic,25
126d4f4e-6378-432a-a3b5-a8e47e89ce78,Edie,Capper,38
295d9cd8-4816-467b-b463-d3c6741a9673,Regine,Cartner,34
0d567e96-5c5c-418b-b0c5-7960fe34a269,Lief,Forte,19
4de94f09-7765-42eb-8fb9-55b3c15c6af7,Barr,Dorrian,28
cc91e4f8-c940-4677-aa8c-dadc848ef6ee,Cornall,Heaseman,21
36f789c1-bf7a-48bd-a255-2916d1fb6eb5,Gnni,Dodsworth,27
6b384d95-ffb8-474f-abe2-8a289f90056a,Fania,Caban,19
eb2b4f2f-26f7-4986-a908-7cefa94a3f27,Glyn,Shovlin,29
d7c4ff18-6e17-4779-b910-0bd8a45a53aa,Kym,Ughetti,18
7d9b0daa-c25d-43ae-97a6-12a21de8dbd4,Ginnifer,Drennan,41
96e788a7-44fb-4ce0-bc9c-49e6d1cea0ba,Rosanne,McKelvey,32
d9fc2c8e-4726-4358-96dc-a841c4938b68,Dianna,O'Fogarty,32
fdce97f1-ec7e-4ac6-9e6e-9470a2bdf143,Anstice,Vasse,41
b123acdc-f0f6-4e24-a396-0561bd90ec1f,Jarrad,Cansdill,49
4389bf54-d871-4016-bdca-538a3d9d2b41,Pier,Horley,39
b731c5bf-171e-42d1-9828-26ce605ce5c4,Brit,Shermar,22
54ffe6e9-8eb0-42cb-8daf-1671d3f3bd96,Kimberli,Cowthard,34
728cc0a0-3785-4058-b366-c9a584771554,Audry,Donoghue,19
d4eb564a-88d0-4d30-8ba7-11912106e8ff,Evered,Mabone,49
c7bfe802-6ad8-400e-89c6-e388013d3a37,Temple,Syred,18
c05a0a72-43ac-4d72-8a74-15741654ee80,Lukas,Fearnsides,27
d395d844-9e81-4725-9358-262ea03b45af,Liza,Pebworth,49
64f2697e-2649-4ff5-af13-26a752b18c96,Gianna,Woodage,26
ea0739c3-548b-491b-b759-0aacebd11ce7,Adena,Barter,37
7d2b0a86-4b3e-4cae-809f-68107b41e876,Serena,Sextie,46
51458edd-926e-436f-a1b5-44ae6bac05e3,Natty,Armand,38
4e984971-e8d0-4734-b9d9-a7e4c0dc2aa6,Cesar,Micklem,26
7e03b842-8c2f-45ab-af48-2b8a19381dba,Dudley,Imesson,25
b87a19b4-ffca-4987-94ac-dc9edb41fc75,Martica,Hassin,42
a0a5100e-9428-49bc-a028-0986d01daca7,Westley,Kynder,40
73e34f33-1ed2-46a4-9399-5a6cf48684b1,Donnie,Headey,39
677b85b3-7c83-4e1a-9df0-fdac09346b17,Asher,Bindin,23
b72d152a-170c-46ce-a903-9085373e7387,Kit,Pickwell,39
1cd16525-afdc-441b-a402-27562963d53e,Valina,Warre,26
47266670-a0ae-4e19-8a04-82c1628d987f,Thea,Brazil,42
34361447-3b2f-4d86-b3c6-c66992316194,Fredericka,Damiata,42
4048893c-b5e4-4404-9285-17e7cce31c12,Nicola,Hourihan,48
1278ab7f-421b-466c-a87b-7ac024a68194,Alicia,Stratz,37
6956611f-ad94-411a-8775-b9f6bfa820b2,Karney,Hapke,36
a69340d7-bbc6-471c-8270-0e9b737d474b,Sydel,Fessier,30
917381fa-a5f7-469e-b199-8e8589c35762,Lindy,Veare,36
2ed7d289-f1e0-4e54-a19a-c5eeac6e1744,Earlie,Tearny,20
c34fc13d-c8ac-4fa8-a199-ef752017d4bb,Joannes,Popple,40
7dbf6931-3e38-4bf5-899d-f131296c671e,Cortie,Ebben,30
3a9521ee-521f-4afa-a626-01a90405cb5b,Even,Wathan,42
1b86ccd0-c2e1-4ef0-88d5-f55f9767ad43,Genni,Murrells,23
9ac463ba-2048-466f-8477-897373a8a8e9,Lorrie,Knowlson,18
91f5609d-bbb3-49e9-b94a-b827f0966d1c,Kort,Purslow,26
3b9ca783-4a1f-4c00-bf97-5da3392058e2,Dennie,Arkle,19
6c4e2893-7736-43da-870e-4c7193ea75b6,Jeth,Brunotti,38
655aa006-1831-418d-b205-cb2ba7715a04,Shaw,Delacourt,24
4b5606d3-91d0-4f87-b8e6-068b87b97678,Jacob,Spry,40
ddb45d19-a35f-4d80-bfb7-dca2478e82c5,Sheila,MacCurley,23
8179fbb0-22e2-41a9-85bd-2a1b01a15689,Nora,Korlat,22
6ac0b2ad-ecb3-45a3-8897-ed0df9039c45,Katharine,Tatersale,34
cbe52b8f-dd1b-4b41-88c1-026645b794a8,Cordy,Hundall,23
59d72896-24af-4cfa-8f00-a3b918d1ca8f,Leena,Roussel,46
6092287b-b1d2-4b6f-bb88-d601b4a74dd7,Kerry,Warnes,24
43dcd210-a43e-4b50-9460-94c38aea72ab,Leonelle,Munford,50
a32a7c6e-b761-42bb-ab17-eedbc7126e99,Vasilis,Ruppel,34
2a438763-d466-4883-8991-0e49f2b26e55,Phaedra,Lindegard,21
3f80830f-5d2b-43db-8390-7f1c53858100,Jeralee,Rumming,41
b55b67b0-e0fd-4620-9872-7b2e6939536b,Denys,Semiraz,48
0d004033-f8da-4515-afa3-293d6d0efef8,Jacinda,Kellert,46
5a62b08d-ef45-4c17-8bd8-52e412171743,Ward,Rignoldes,20
edb27fd7-9790-4807-a5ba-47183b55f8eb,Stoddard,Gueste,20
06680d8c-4d24-470a-ae09-91035e265780,Billye,Ainsworth,25
ea1b5ab5-043b-4cd2-ba7a-89b1a2a89cfc,Kimble,Gueste,50
202c3c49-9792-4948-a4a1-0dc291871f98,Silvester,Vye,35
216a20b1-e06e-4312-98f8-0452c0426faa,Kory,Briskey,49
3d3548bc-6487-433a-b0eb-0b82577e52df,Silvester,Avis,21
6ff95574-ebf5-4d14-a671-0eb95fff9f3b,Brennan,Sheldrick,26
af62c925-a03d-4d9e-91c9-a9dbfd0c5e16,Diego,Carslaw,38
0d962d1e-4bf1-4336-8cfb-3b154bdb88e1,Gwyn,Davids,44
3ef36fdb-45e4-47db-9f51-1e0b6e34533b,Yvon,Huyche,33
45605a00-42c5-4c13-8af2-6a837ed43054,Ave,Sisse,27
e3768ed9-d9f2-4a52-a5ba-8b1523c90482,Nev,Brodley,44
e22a12ee-aedd-4056-94a5-680c96641ddc,Hermy,Girk,48
b7a3d4b1-8144-472d-a7a4-31c393f71056,Salvador,Strute,29
df628a2b-65d2-46df-9cf7-2ce577493b54,Adolph,Warden,30
b776a100-a6d4-405e-aa16-cfcf013edacf,Durant,Belford,39
ef7d8eaa-7c42-467d-beb8-050b95fa85d2,Merissa,Fasse,18
5f04da73-0b7a-4e7e-90ee-5e92209e2649,Abigael,Northin,24
ff21d3a6-ca56-4390-9744-b98232083a19,Marlane,Bikker,34
ac85566f-339b-4e87-86af-a712443e8742,Katleen,Romera,49
15761395-5b13-4c44-8f0a-30b43985b7fa,Phil,Hardson,45
ce360fbe-fc60-419b-a530-81c718849b9f,Derk,Abrahamovitz,40
23978ee3-1253-4744-8614-91a206f567e8,Vicky,Needham,35
b6d98e8c-d5ed-4785-aaed-dc446a8327e6,Renell,Desesquelle,44
43a5422b-92d8-4180-891f-c34efa263056,Joshua,Wantling,44
767afc4f-08e3-439c-93d3-1729d7ca3747,Alaster,Sprasen,18
c1d19a41-732d-4fe9-bc6d-4b3ca7a6f81e,Nanni,Petti,40
f97c8a5e-83a4-4ccb-9527-e5388f5b5696,Irma,Benoy,48
fe9ad052-8817-4d1c-80f3-57461d85b709,Danika,Pharo,25
3b3c0684-a148-4add-afc4-2519c0ef6acc,Walsh,Revening,45
d6ddb910-92fb-4074-ab95-75c560baab07,Lowrance,Brindle,43
55b96a7b-d146-4903-8cc8-b247ce96225b,Cob,Goodban,29
4fe2d712-e072-4226-b2cd-f4823b497ef9,Sherri,Bates,20
b2853db1-a608-419d-9d1f-b1dec3638d49,Matilde,Hartwell,40
4582bad8-8678-4d6f-9cbc-464e2d860988,Benedetto,Ungerer,48
41271c05-fcf3-406e-a739-900eafb153c7,Shay,Studdard,47
d5be598b-aaa2-4b73-a0fa-b6c48beb3181,Maddie,Baldazzi,28
b4f1bae5-992e-4b90-851d-d4b717686b38,Rees,Collicott,44
823ce5b9-82ec-42a7-9452-79687cb405d9,Annmaria,Ferraron,33
d37b660e-0b8f-455f-91a0-a7767c87f87e,Ashley,Pridmore,47
771dfee7-fbd1-4b9d-ab76-ff2070615c0a,Osgood,McCafferky,50
c0838b8f-9c57-49df-b113-dfa67e399344,Vidovic,Collyear,48
9e980566-eec3-4b35-8bf4-64f32d0ac1ac,Jodi,Paike,19
62db2d9f-4ecf-407b-87d7-b94369cadccc,Lynelle,Shills,32
115bcf35-7128-4557-8a7f-36917a6e3343,Jolene,Marian,34
225dd05e-898b-4eaa-afc6-0a1b78c6c66b,Tabbitha,Mushart,37
6e4091c8-62bc-4a1d-a98d-5e929eda2bde,Lisbeth,Allsobrook,20
fc171ff7-79b7-4591-bd00-bb4cdf80110f,Barbara-anne,Fosher,49
c8d52abd-4d6a-4cff-ad65-5f2412c83e08,Marcos,Gimbrett,26
a361c2f4-d0ee-4ff5-bdba-74ed67085a69,Hart,Fines,30
935450f9-3c0f-4349-9e30-30894e6a0c75,Cassius,Kalvin,20
9c8ea867-c8a2-4b45-a835-fcc620f4264d,Zack,Trodler,35
8bc29f53-4822-4af1-91bb-3140c0cfe057,Monti,Pond,22
74b3f415-cbde-414b-aaa0-5553ab98e475,Dannie,Mcall,18
e0445abe-8bcc-42fc-81f4-a4b898acbbe9,Lu,Sewter,35
e4e48509-7fb0-4976-9d71-02a781faa5fc,Parry,Postins,50
812d1395-6de4-40c4-8166-c67f13ab44e0,Mendel,Standley,35
68a7a0a8-5e01-4d7a-acac-eac71ce29cc5,Raul,Prinnett,48
a0f51d87-eea6-4d7f-93e4-1a5f22c188ab,Ulises,Liddyard,34
c90168bc-6a31-49e7-87b5-6ca2b216c893,Kirsteni,Sharple,47
86a496b1-0ea9-4f7c-ab9b-276a4dc0c8c5,Geri,Polye,47
b3ba2919-0abf-45a1-8b91-77300fa155c5,Malissia,Mingay,27
e79e3f90-8003-48a3-b69b-96d0b94b74ba,Bourke,McPharlain,49
dfe15db7-5d59-4dca-adb4-d863ab95286f,Hayyim,Stace,23
88938ceb-16c2-47b8-99fb-4f572f2bc7d8,Haily,Buterton,40
175fb71b-3c8d-4ea0-ae5a-c5f6ef1609f2,Teriann,Newark,35
26fddfbb-62df-4dd3-9a87-bb8bf16e3831,Curry,Kirkhouse,31
eba5c0e3-6577-46f5-aaf1-909bf81a0351,Mallory,O'Henecan,24
528985d8-d11e-46b3-9778-fe8e3ba52fd4,Abeu,Dumbrall,31
960b9dd7-bdcb-4c63-a0b3-a960e71a5ba5,Gwenni,Murison,45
90c3b370-e197-4af4-9a2a-d2d9c8fe4e4e,Maible,Abbett,22
3a3cc7e4-26b0-4524-be8c-7d12f49b6cad,Cesya,Spreull,34
8906ae84-17f5-4b8e-b276-7d2ec78e50e4,Lelia,Woolbrook,40
defae661-216a-442d-8ef7-b8a479b6c105,Constantin,Dudliston,24
0f831ef9-f939-4203-aa27-719fc28438c3,Robinett,Le Houx,49
65457b9f-0f34-48c7-8d28-a4e89f880d24,Andres,Backhurst,38
a61494ff-afb4-44fd-b4ea-92f974e141ef,Dulsea,Napoli,48
92e70ae8-822e-42b4-87df-6c1590524cf1,Basil,Saunderson,48
ee480f3f-2b57-41cf-b6c3-fd46ae85a9e1,Etta,Eronie,43
bf063c34-c06a-4681-af5a-084689906ea2,Moina,Perrelli,18
555c0239-28a3-4900-9b36-1ed6795edf09,Danya,Furnell,19
99c681de-3f37-4794-a84d-0999c8604024,Terencio,Fourman,35
f54f2395-1787-4f49-b890-c202138cd368,Rickert,Forestel,40
c7471687-9746-41e7-9362-70456cf49ba6,Cyndi,Gettens,50
d22a54fd-9fe6-42f7-b8bc-0ed3f9d52ea3,Ediva,Mation,38
a5f57096-d8a2-4d6f-a85b-10c035195dd2,Rodrique,Loud,21
3c61790b-4985-4b33-a747-d4bd616ff0e7,Ashlie,Wombwell,38
bc3f2af4-15b4-4142-87e8-96835cadf96d,Herschel,Raynard,26
658713f7-e38f-4b11-9ed2-c3a1cf69c399,Rand,Rubberts,30
f6ff02b7-edcd-4369-9a07-523d4cb115ba,Bernhard,Rustadge,43
0843432d-d38e-4f1a-b54d-8d0f9208a2b3,Shaine,Garie,34
b361993d-99af-4096-bc9e-f712998be972,Dani,Broadbear,18
ad1b037c-ec4e-4f4d-b56b-7c29a7be45a8,Karlan,Schimoni,35
50ddc21e-445d-438a-b827-fd2caa2ff846,Ephrem,Garard,45
533c47dc-c437-4245-9050-959530358eb1,Hazel,Ludovici,46
ea9964d9-49a6-4f77-8fd3-3dcc724b9fbd,Risa,Sitwell,26
389cb423-0635-416d-81a2-47de7f3ee3fd,Lanae,Kerner,49
ebd6de07-d6aa-47ad-b5dd-69417f97e3b5,Bernard,Sprasen,49
6e2464ac-d346-440d-958b-6fd2d67da0ed,Christian,O'Howbane,31
742331da-1801-4e30-9b22-93a38b65856c,Berti,Greggs,20
80643577-b76a-437a-a538-f2dadb2bb9ec,Cristiano,Robard,24
2202de6e-6653-4d7b-b59f-07fbc63c3552,Floria,Berridge,37
562b43e2-e56a-4a7b-9925-0efbed51877e,Willa,Matteotti,19
104d5130-28a4-4760-8be4-2d5f0aabc023,Durant,Brawley,36
46d17256-e84d-4f1d-8254-661735725ff7,Bonny,Dello,36
36a94094-af62-46a3-87ea-475414bd3ecc,Eldredge,Gilbard,30
aa739808-d481-496f-be18-c8d0f566a4fc,Kenna,Pauletti,40
c7457ca4-22d2-4924-93ed-08e38556f6d1,Norrie,Barrass,29
69bb9f53-e97b-41fa-8513-db88b71bd43d,Meris,Fattori,20
420adc6d-3ab4-44ea-94e2-f35f1f5ca3c5,Chadd,Nowick,35
9af61ce8-4a44-44a2-a60d-e724a998a554,Karola,Pena,35
7a57b2c0-4835-4cfa-bae6-2902dd8ae9f8,Wallie,Parrott,31
6dd461cd-f9f4-462d-9de7-f394449a1a55,Daria,Gall,50
176caabe-99e3-46f2-b0d9-0b19116ded6c,Lemar,Stetlye,28
8203897c-6272-48f1-bfba-213b2d4d33e7,Donal,Oliva,44
2b3e72b1-f95d-4e05-9dcc-f76ac443eab5,Davey,Russen,24
ae34a3bd-34b1-4934-96a0-4b4b095ba09d,Alister,Cheshire,34
45f36e7a-a973-482c-8c2b-8baf435b2f38,Kipp,Fullicks,31
b98aa23f-6c1d-4648-8129-753d29d078aa,Marybeth,Maccrae,26
fb71b3d3-de0b-41e7-8940-ef8fa3c9f42f,Paul,Kepp,35
cb668e96-f2da-46ae-be99-1f152734aa27,Sutherland,Phizacklea,35
0b24983c-5a70-4789-ac47-6c335191f72d,Tania,Dunkerly,24
903441fb-a31e-4030-9e23-f7e19cf242e2,Kelvin,Yegorov,31
9a09ba5c-5d89-4b8f-9868-4b84b214ed31,Vannie,Getsham,34
9a1983de-2863-47e6-b3d1-aaf1e003333f,Hettie,Marcq,39
be2515f3-7551-4bf5-a923-4fa69b30c75b,Carny,Huggins,21
cf923a10-22aa-4623-a1b2-7f178cc3609d,Karisa,Calam,20
630e872a-714b-4aa7-bdad-b7b9447e9989,Tasia,Wilde,38
87ae4508-95db-45ec-92b0-1303a21f802d,Darsey,Henricsson,38
894e2b3c-d93b-4b1d-8113-a325efaaae03,Cornela,Girdwood,24
88accbc4-e57c-4c82-b2bc-a91dcffeea56,Ellynn,Wombwell,34
33cd2759-7d87-4b0d-ad06-4f772717f456,Ashby,Slowey,28
47d03612-2e90-4d8e-8263-895c63194194,Fancy,Clubb,18
e5e2930c-10e2-49b3-ad05-054cb266ca5d,Hobie,McGall,27
a2a881e8-f575-479f-9481-87ac0291019f,Reade,Rain,26
68b4ce9c-8faa-420b-a3cd-4338894dd83f,Jake,Shouler,24
5541a440-7366-42e7-affe-116ed5a65b37,Annis,Pittet,44
659d2f72-cf5d-4a35-a426-6004b2ed00a2,Godfrey,Baxandall,36
3e327470-7cc8-422a-90e9-0ca6424ff77a,Sarajane,Elliker,27
b63778d0-656a-4ea8-906a-2b765d6700c9,Robinet,Ramlot,19
012122ef-4b6f-4a31-a18e-12440f27506a,Alyda,Aronowicz,32
403bed5b-3534-41be-a028-c530d92e6da6,Sheilakathryn,Gedney,30
0a7bc159-d4a6-4a8d-b12c-a74da939acb0,Viola,Gisborne,38
3862e229-6e31-4a88-afc6-81676a554d96,Hasty,Capper,31
935de5d7-e9eb-48c8-8b87-48083e145f50,Margarette,Filchakov,25
1a7afdc4-b018-4f95-bc1a-34b1ae6b354c,Lurline,Doust,38
b32ed32f-247e-40c5-9026-aa049dfe98b1,Gertrudis,Vice,22
5b1591f8-9dc4-42d2-8071-7143767579b2,Deeanne,Boorne,29
41ef7d07-f998-42da-8a31-bc33b132ca39,Stafford,Vaudre,23
59b1a222-db89-4bab-86ee-e4372a5d0bb6,Alejandrina,Lanning,49
99b25e01-556b-4805-958a-d6ac42bb2420,Dorette,Meechan,40
ffa69bd7-141a-4b62-951e-3c0c9ac29348,Marjie,Classen,21
455dfc72-9194-4355-a3ba-6fb8ffbaba6d,Beatrix,O' Loughran,50
e18cd588-1129-4811-bcf2-a63d203ba7de,Todd,Moss,32
1bf19d14-2cd7-460b-b7d8-0c596a12c865,Bettye,Simonson,28
d90e7f70-7d0e-4945-8659-ec2b71abf74d,Charis,Giacometti,38
9142376d-89dd-4053-a548-5b0498df12eb,Christine,Bryenton,20
289ba6df-65f6-4f86-99cb-0629f1294672,Byrann,Nani,19
3ba0cae3-e0f8-4957-b874-a58e048ad4f3,Patrizia,Troup,47
dea5e7b2-d825-47c7-8e28-0ca36037255f,Constantino,Woolmore,36
056492f4-d758-4ccf-9c34-53159e7d49b3,Karol,McGrowther,46
593fc6f4-9f62-4f6b-bfaf-6e906f544fed,Gareth,Bradick,44
b058c3c0-acde-46fa-8596-1f68523d371b,Dur,Greatland,42
217d1518-7061-44ee-9e5d-f1b5646ffbab,Kiersten,McIlmorie,37
1c2db3fa-54d5-4aa3-ab1a-a638a5bf3b4a,Stillman,De Micoli,33
e28eafee-220a-4f0b-bd98-33c21718c52e,Rebecca,Pideon,49
dbb92635-d50b-4fa4-abdd-fa5c1dde56f5,Welbie,Fomichyov,41
57c58b06-e469-4d3d-bb19-64680d079fa6,Donna,Hallan,47
1e3425c7-0963-4689-b51a-8cce865bcef1,Gertrudis,Ertel,29
99fbc199-6b34-459c-af8e-d4946e2ce60e,Rolando,McLoney,43
6b65501f-3fe2-4bd7-9ec6-befdeb654912,Fitz,Rawcliffe,50
02de29da-ba76-465d-b2aa-3cbd06bba6d2,Donnie,Alleyne,46
78aac5ee-ac84-4c24-a8ec-d381736a3f71,Cesya,Poundesford,42
4ae72dd6-5f9f-40a1-88b6-1d94caadf212,Kaspar,Mordacai,25
40f73f82-6139-44eb-86ca-323f8124636a,Matti,Calbreath,37
033468da-12ad-458e-a784-2062133c9467,Gaye,Hurche,37
460b7b8b-17d5-47c9-8c4a-b7b4e6c2d9e0,Urbano,Copin,22
ad5b4177-7730-4c6f-b205-db4b6d0900fe,Georas,Trevenu,40
6042f302-addb-454b-a1e9-cf018a594086,Huey,Jewell,46
b547f14c-e6d2-41e1-b500-61000f4c8ce6,Erick,Aslet,49
ed608bb2-0f32-4efa-92e7-c94b8d769983,Banky,Kowalik,49
3bd5ae31-886e-4425-8cb0-7b5f878e1ab2,Cherilyn,Datte,47
7b71fe52-f381-4ba4-9619-449b185c1361,Hubey,Bartosik,22
c7e0c5a7-93cd-400c-8a4c-deb05ee09b85,Ronny,Shyre,35
1e5cd4b4-ee21-482a-885e-25e6009005e2,Lola,Agge,21
0db43aba-0e2c-411e-b91f-6463fc3015c9,Marylin,Speeks,39
104a6d15-a467-4d19-b839-6b4600145300,Adria,Pietrowicz,27
4772d54a-2f29-45e5-b2a5-e249d202e005,Aluin,Beer,33
eebdc8bd-533e-4db7-861b-cc954f0d50d8,Gene,Ambrogini,35
d3aa3cd4-116c-4659-ba5d-abccb3864aef,Issi,Plett,22
f1738aa4-4071-4804-ae29-5efc9a26fcd8,Dominick,Boggon,31
fa0a19a8-b2e3-40e3-9f31-1f6bfe41a309,Donny,Shillaber,48
61a19306-45b3-4da1-ac81-ad1047978138,Welbie,O'Carrol,44
4213e438-df31-4b98-865f-4ba36a6edd80,Felicle,Yukhnov,43
a241b15d-da30-4289-93a1-a3c2c38098e1,Farra,Sitford,35
ce17289a-e813-4aa2-8b99-fd722f3646f8,Angil,Pannett,48
047afebc-208f-4839-991e-71874b2e7321,Bette-ann,Thickett,29
1a29eae1-2800-42bc-9e63-f5c00c9669b4,Roze,Hanks,39
6bbbfb07-3f10-4367-bf2e-a8ae3e42c09d,Dane,Friend,30
3201ecda-8fe6-4527-8506-8131509d3fa3,Bryce,Fraschetti,27
fb3b6554-87b0-45e5-814f-0fe30a6ddc04,Fianna,Haire,19
1b9faea8-062b-483e-95d0-20c5bcc79117,Olympie,Popley,43
4aa2a1a0-8032-4af2-85c8-14b87a9af7a1,Wallas,Byllam,37
ec0e98dc-f4c2-476f-bc50-ef12bed0afc7,Jasun,Watman,23
c9bc49fe-08b5-4651-9a6d-555df365b208,Angelica,Pankethman,18
c4b6be68-12c6-45fa-9f61-bd0ecff5ae0b,Laughton,Lefeaver,34
7b21159a-5a12-4d4e-a843-d30920d05d1f,Arie,Hinrichsen,50
435aeab9-826b-46b9-a547-5507eba27c65,Jasmin,Tomek,39
45dc5758-bf24-4f47-a07d-1961dcc8722a,Nerty,Pohling,41
06a793e7-3488-463a-9a8a-7998bbe3605f,Vinny,Goalley,38
9cdfd904-6f3b-4fd0-89db-e4f52472a17e,Stormi,Aysh,43
9c5bb4ee-8b1e-4db3-887b-e50b351d7a47,Jodie,Lawtie,28
6627d404-8685-4a8e-9a34-b96ce6d557e3,Charlean,Sarra,50
facbb087-7375-4a1f-9749-b891970ec61b,Elwood,Lake,46
93aed011-1d98-4744-8136-849e77898059,Iain,Greenway,46
662e4765-4eaa-4f2e-86bc-0f2022bc0ab7,Steffie,Shepland,20
55c8fb9d-6180-4f9d-a6f7-37939190e844,Kat,Shears,20
0c5787be-84eb-44c9-93c0-2e0c88c10dd3,Vincent,Pettecrew,48
9483efd7-359d-46d2-ac5f-6714b8423754,Farrel,Knifton,35
3890c858-261e-42b8-8c61-6c265512cfe6,Roda,Barnby,28
a50c8756-9e44-405e-b71a-5d88fcecff53,Vyky,Growy,37
c4c49ef5-540c-4d69-8ad4-e0128249315d,Veriee,Veck,20
b9ed196b-f899-48be-9767-abbb957e7c72,Cordie,Lowdham,28
753d8285-92c9-4f5a-97b4-372080f70cdc,Jayne,Beveredge,34
8a7f91e0-adf4-46b6-8fc1-058070c3e61e,Ferdinanda,Yakobovicz,40
ad00fb56-d7b8-4045-a4bc-e68335e1ab26,Shane,Sheward,18
5b52d96b-159c-47fc-a464-83ee0d8e3669,Man,Wayvill,43
3504d7f8-4be6-41f9-89aa-453d3f974d7a,Kiley,Rogger,42
e6ac5134-30c9-469c-90fb-2b6e82e21ccd,Constanta,Cockley,22
d466287d-3988-44a5-924c-3b1941af2183,Neely,Fadian,27
9b094897-5cb6-4f12-84aa-8cf415021ce9,Tomasine,Luchelli,42
0b773adb-d28a-4652-8b7c-f63460bc19a8,Dana,Walas,31
4957f5dc-58c8-41a3-bb84-970f72c93220,Lexis,Dankersley,39
6c74def0-f3bf-46c4-aa5f-e593816f9cab,Prisca,Tomaschke,46
f06adaee-dfb9-405d-90d9-d2afcc0285d6,Axe,Zanetto,19
f1365a25-0ca3-4610-81ec-d6656a7b0b58,Bevin,Sahlstrom,49
6e708524-e0ce-464c-af7d-3f1867fea4f5,Barbee,Beaton,46
cbe5d66b-8cc9-4980-ada1-edb264871a26,Celesta,Uren,23
e0ac9ad9-2a2e-4e23-9211-e3534e1b5ca5,Nikolas,Donovin,32
cb59a1d5-31d7-4bf9-afdc-8cbf684a2b81,Joycelin,Tregea,21
a46a6593-58ef-4536-85dd-e867b7dcc75a,Lexine,Lloyds,19
4ea822a1-966b-4a71-bed6-c17c5b86919b,Melli,Harrie,29
7552f5b4-c5aa-4100-9c65-dbf0ba8d6681,Rea,Devita,39
0505bdc5-1e1e-4679-9e6c-809b0ba1323e,Carolynn,Giacomoni,24
190a30e3-1243-41f1-9247-47ca5b0b7898,Clemmy,Chinnick,49
928b23b3-15f1-4984-8ed9-f7d015f3c4ee,Gordan,Studart,24
0b8203b2-170c-4e09-8c50-74eb2f0cbb61,Vasilis,Knotte,46
3a608196-a9ec-4a3b-9e92-f683ec510587,Christen,Sinden,27
08211f9e-a93a-4e07-bb0f-858286f67877,Sadella,Baggallay,19
8fa42288-600f-4773-bd82-f0c0f00d67c5,Augustus,Stoute,35
b228dfd7-72c6-4d47-ab51-9677ce781aa3,Tyler,Travis,36
5ce5d877-502b-45b3-b164-4871d4c64507,Maia,Perton,21
5847b147-4567-42e6-aeca-1d65c9817825,Delcine,Gourlay,44
418f9937-32e4-463f-9185-d451989d9392,Emlynn,Filipychev,20
864554b8-3700-4247-886f-5e55bff10d11,Jeana,Closs,46
d130749a-a8a7-4876-bcfb-5d4001cb6a02,Ruby,Sissons,44
ac8a4624-8790-41b7-b5d6-559340d6270a,Bernice,Bunstone,47
82ac6f3a-f93b-49ae-bab8-0eb4ba0700d6,Damara,Blampy,18
4a8ae374-8d6f-4fd7-88f9-388fbadaeb39,Andrey,Gaiger,37
1f37ea5e-a4b6-4909-9e4c-855368ef1ab5,Chloe,Strelitz,25
31cf3762-754b-4940-ba20-0daeb90c5b6f,Marietta,McGrane,34
61dc9da0-5576-47fd-b317-b683d95655a1,Warren,Turvie,29
edce54d8-ed90-4f5c-9951-09a1237d1fd0,Gisella,Orrell,27
05cf12f5-6ee2-4335-8d5a-05f3f2cebbb1,Randene,Bonifant,47
d4d98ccb-1360-46f9-8e75-85aba514cf23,Edythe,Hofler,46
0fa3bf06-2d6d-4320-9cc0-b9426430f6d6,Jodi,Scholes,39
3c42c24c-fff7-4f82-905d-6e90c47720fd,Wilfred,Ratray,25
4e143e35-9e13-4378-9efe-9422e8e9407b,Bevon,Gunny,20
4ab0da95-c1d2-4ce7-a452-a8a4af931d6b,Bogart,Tonna,31
5682ede0-b638-4882-a038-5a654d198452,Lidia,Grimshaw,29
2ac90876-9306-42a2-92f5-d9a0c1722d25,Lorinda,Challenor,22
5de2cf4f-7349-4bf3-a073-e11dc60a6319,Ossie,Hubback,45
ca3df87d-f190-4832-b350-3f7be52af3cc,Stefan,Howey,36
d72a8e4b-e69a-4ba7-8173-3c4473f54e32,Terry,Rodolphe,31
44810dc8-8b23-4506-bf7e-21b9fa580e1c,Alicia,Burder,21
05d557de-2d4e-4cd0-a4bb-32c039244211,Alica,Tenpenny,18
18e96e9d-b730-4435-b254-0522accaca0e,Derrek,Iffe,43
85f9b061-db90-4763-8b37-3cd8abca5d1e,Nell,Picton,40
e93ee354-4f71-42a5-8dd3-20b0c2976e14,Sergio,Streatley,36
dcfa6647-df97-4326-8a68-8304aa542ed6,Solly,Towns,44
737dab7d-db46-4cf8-8433-67c4db6990c9,Martino,Flageul,47
21cb2114-3662-4640-83da-f63266c78225,Kingston,Pohlak,31
abf0a444-3a82-426d-999f-c18621e1827b,Robers,Stoaks,44
996eece3-360e-40c7-b4b7-46e4bcea60c4,Lenette,O'Hanlon,39
66074114-0a7f-45b5-8964-10e962a9b9e1,Svend,Spring,37
0748ff62-757a-45bf-92f1-54a47d07c94a,Templeton,Simonite,50
ee779dab-69bd-404f-9a71-d8e993844529,Caz,McMenamie,42
d90b981f-0b37-4146-91af-4ee529054669,Karole,Fleury,24
917ae447-5061-42f9-8ed3-ee66f748fcb1,Caroline,Evemy,50
c636bbdd-a623-4343-8631-cd65e23083b1,Ferdy,Wainman,50
863fa0cb-32e2-4cfc-a57c-56d9b8a77f25,Ibbie,Persent,28
eaad0642-fa0d-4ef4-b40d-94483c0d9098,Lani,Heaker,29
373b784d-368f-4df0-9360-984d9d362d07,Domeniga,Mould,40
4ba0f9b5-92d5-4e76-9a30-8b9bddc0a638,Rafi,De Ath,31
b4a608ef-f56f-48c3-8e06-1432055cb50c,Floyd,Gettins,44
afc0cc7f-b691-4554-b37e-a4f30fe3d9b0,Silvain,Proffitt,33
46f4b710-9cf3-4c07-b734-47ed94132898,Vic,Ramey,42
0bef01c5-664c-439d-9488-fa840b6b5e47,Jehanna,Glader,22
eb3d4650-3c0c-4f8e-a43f-8c3ec909231d,Fran,Joel,30
62863800-5f61-4653-a85a-2c51710e0f8c,Elsbeth,Shelton,21
1ed46df8-1876-4e55-bbc7-ffb58b592320,Roth,Hugonet,36
431ddbd4-1a67-46f1-97be-bb30b9c320b3,Mac,Preshaw,25
97bfb28a-223e-4adf-9075-9346799619c0,Modesta,Gregorowicz,48
210bf3b0-0244-4735-8d5a-70ca45afe7bd,Corny,Lippatt,28
3d5ca026-5e48-4942-ac7c-ec4c1cd733ab,Rudolfo,Pontain,31
e9c9067f-2f8a-4ab6-b7f8-6ee336258fcc,Gabriell,Blanshard,27
916bbfd9-d152-4380-919c-ccd1d8d620e2,Adda,Baume,44
13f6e53a-e9a9-4320-af77-5b8108342bae,Wrennie,Bech,49
26e1eff3-6d28-4a64-9d7c-97e148c4798f,Caro,Rowbottom,24
ff03e0b9-09c1-4bc1-bb34-2023d11a309b,Irving,Rishbrook,22
a1108138-9f95-46ef-b5e8-cd89f8e31cc9,Aurlie,Guidini,27
0ad67d48-becc-409b-be19-a41d6b778dd8,Fawn,Hayball,30
e0497567-a859-42f2-91a1-6711814f10ab,Carmine,Charlon,27
37b9361f-2c54-4e6e-948f-e613ff223ee7,Ansel,Kaliszewski,20
6e13f9a9-00a8-4b6e-859f-cd2ddcbbafb5,Doralia,Dobbs,47
e3c148dd-7450-40aa-8aeb-8eeaa5a6adc9,Kerby,Draxford,42
df6f1c92-f728-44cf-a8b1-e2dc8567af3b,Nady,Kinman,45
b148b575-f137-436e-ae35-363d6ff105bb,Lesya,Biagioni,31
7fcf2f93-7c09-451b-9739-89eaaa8c893a,Jayson,Kinchley,20
65cf6cc6-84cb-4623-aeb1-fdce534e7be6,Toni,Mc Faul,18
545c6eeb-eaa5-4308-a3e1-5f99940127d9,Benson,Monahan,22
f235d538-fd67-49bb-aee9-ab4a4617bf0f,Kellen,Bassingden,42
e08371b2-87a5-4430-8165-e3db16c07d8f,Livvyy,Stiff,48
5c19e1b1-e1d4-43d2-845d-b0b39644bd7a,Loreen,Gonnely,40
cae2c4b9-2f9a-4c6e-a8f9-491c6f927e68,Keith,Setter,24
b185c270-7493-4c97-ad05-5ea386b5c298,Oona,Mathet,22
1dd8fe2e-b4e5-4ed3-b8ab-40cb0348b8a0,Riccardo,Tough,26
190b1f60-6657-4a80-870e-71149bd20fae,Dalt,Newlove,45
2fc4d96b-ee42-4a95-a4dd-8eca61f4e871,Kaitlin,Broader,30
f437bc2c-6d32-417a-9eaa-8736278e569c,Ingaberg,Freddi,39
1f7db1c6-6bb2-4eed-8560-ade48d6faccf,Carlin,Chestney,47
a902897a-df31-475a-9d60-dbda5ab82f27,Lana,Gussin,28
a809d23f-d732-45db-9e72-36923cc924bb,Ezequiel,Marginson,37
ced9a33a-5ad8-4880-88c3-4b41496c2dec,Spenser,Monckton,36
7a426528-caef-42d0-890c-6da1791bbdb1,Dani,Sudron,31
a2729e59-9d0b-4b81-9e04-9fa7292bcffb,Forrester,Hissett,20
14f7b29c-dddf-4c5e-977d-adc7af6564ce,Paulie,Arpe,44
0932066d-eb45-4951-9ac9-534c97055ae6,Cahra,Saltrese,18
f029f15f-85b2-4655-a792-8dd7ff562803,Appolonia,Soule,50
e181fea0-5c57-4af4-9952-9a3d638f87db,Mac,Rusk,22
84e3b2e0-ee31-4d07-9e80-719a9b57b169,Gwenneth,McAusland,30
1061613c-5405-4abe-89df-24f84c834e0c,Chiarra,Stollwerck,37
601f228c-689d-44d3-b517-3d3a7c8d7b11,Kennith,Jendricke,38
a61a2e07-fffc-4500-97ea-57356e8678e6,Mal,Bastiman,18
5558e703-4819-44d8-89e1-93053ca79747,Aila,Gauntley,45
3d7570fc-32ec-4f4a-9d88-356780b04846,Ludwig,Todari,45
ce85efae-884b-4821-8272-f35ba4bc1426,Law,Rattray,42
39a33dcb-9ef5-4906-8e0a-e4a0bf034dac,Pauletta,Maclean,28
1b3ac043-8684-4f82-a586-b9abe7887b35,Randal,Rountree,49
84812a74-11c1-4eeb-a771-0f613d9cb962,Guendolen,Crayke,49
c65cab08-493f-40f6-bad5-f33d7c14d56c,Ferguson,Titchmarsh,39
210af561-ca76-4367-a77d-c8fa24ec9441,Blair,Greenhaugh,36
96d6fef5-5a9f-4f12-b4f2-2abe221ab595,Matthias,Berford,29
3d65d028-3237-4bc1-97db-d13304bdba70,Marta,Worgen,35
afad2089-bb8e-476a-8da2-355bdb93fab7,Pierce,Heading,35
ce488f52-342c-4014-b767-2a1a437a0e2e,Edita,Dupre,25
3ca61460-8f93-4bf5-94c6-f143e5c8ee89,Dionne,Parkeson,50
531c9cdc-c94e-4191-bfdb-1d5c1d1fd41b,Zaneta,Reeman,43
72ff3317-f9bf-431c-aac9-637efbf91b7a,Elnora,Rudd,40
ee9a1f10-59bd-4052-809b-76b5acf73d1c,Jeffy,Pilgram,45
e369c906-d280-4d68-93dc-db866389cf54,Domenic,Nare,50
4d6ecb15-49b0-4665-84bf-ded6969204d9,Cliff,Ramalho,36
d1d7fcc8-ea39-48ff-945f-99ee4ccc3d0d,Donielle,Targett,23
b6c1db0e-8ef9-4206-8592-c03c7744a962,Lyda,Mauro,31
ccef88e3-deb2-4646-9438-0cc1bfb9ed78,Thor,Fotheringham,33
4decf954-6a1d-43cb-8ebf-314e0f362990,Antons,Ennion,32
c2f1b39d-9880-4adc-85c7-d843b7b190cc,Nicky,Ginman,49
c13b0587-60c6-4747-9196-a94a5b7cf426,Rey,Sheward,40
687f0d97-6b1d-4176-8ed2-38a67eb02ae1,Leshia,Sextie,24
8826774a-b341-483f-8518-e4c5abea3a14,Joel,Giacopazzi,50
7617f4ab-4790-4a08-92cd-f838a7fa7c95,Benson,Sissel,49
33038235-a710-49d6-998d-5c93becff0d3,Joshua,McLeese,48
63a668fe-1883-4ba6-8780-f91c5b234288,Adham,Frawley,28
52b0dc24-bd9e-4733-b363-8dd97782d77b,Jessamyn,Redwall,26
5163e17f-e760-46b2-b917-c2623a1b3593,Lora,Espadas,20
88026594-2f92-4a7f-9081-f3ef1e26e1d0,Edna,Gillebert,20
76acccd7-0a69-451e-a4ab-98f6981af652,Brodie,Ainsworth,22
117fa3af-ef48-4289-aeeb-a32ad02143df,Rafaellle,Seathwright,46
2f070497-e8e2-4241-88f9-face3b7ef5da,Ulises,Dodamead,50
1404748f-1806-4169-aa58-9eded832b56b,Legra,McGriele,20
38cd6491-1dc1-4ec0-8ff7-f625bdfde62f,Evangelin,Brockie,31
a9e853fa-5bd7-449d-b78b-33ebcb8dbe44,Willyt,Snashall,46
115d5184-c34e-4078-9c28-0fdefb48f82d,Hakeem,Note,47
16a76cd0-f285-44bb-b3c0-ccc5a823d1ed,Sibylla,Barthelet,47
0d9ce943-5b53-48fe-b8cf-287c3934557e,Tedi,Custy,19
efde4dad-6311-435d-b24b-fc8fbc670050,Lula,Klaus,24
443a0310-57df-4468-acef-7ffa478c2ce7,Bili,Corkan,38
168efc1c-f098-42a7-836b-274acda4e8b4,Darell,Di Biagi,49
7befaad8-de3a-4810-b81c-1aa59519e6c4,Bellanca,Marfield,18
455bf365-8bb9-492e-8de7-0fc15a9dd073,Ashlie,Nardi,28
e278c5f8-b708-4b49-a458-e4501c8c3a4f,Barde,Gergely,37
e539d8a2-80c4-41c6-8a2a-a915a22a8b9a,Remy,Rhucroft,35
21f0a384-481e-471b-8fc2-4a6b3fb6b5bf,Bernardina,Degenhardt,34
18c0da38-b064-4bae-a429-59572ff5005b,Michaella,Brunnen,39
f8d86ba6-c779-4ae5-9cd1-7e82d03a70d3,Arman,Bouette,48
5d32ab8e-ae8d-445c-b493-85564f188225,Peg,O'Shevlan,31
f8d09198-959f-4a22-89bc-f67a6ff7513f,Rebecka,Kimbury,28
24a1c7b6-9894-447f-b671-77ae0f742cf0,Anatol,Winkworth,50
90087abb-d3df-4fc0-8f45-b47dc83301b2,Aland,Bust,47
de24cb21-6dc2-4090-bedc-10a1e1485c8f,Garrott,Westhofer,23
a6a12028-0331-4c86-8b51-15233c1cb984,Amelia,Goody,40
b3444acb-791c-4592-8f67-a978de791e6c,Vania,Wharram,36
4d3057eb-0e31-4d90-a746-c537453677b5,Aileen,Sandilands,18
27dcf11d-75ae-44f2-a4bf-77657fd79c94,Ferris,Mitchinson,19
10c7b1e9-b830-4f8b-82c2-cddf34f2decd,Jasmine,Bottom,50
46248ed9-88fa-42c0-8928-0187be08d290,Harlin,Maciaszczyk,19
467ac7dd-b668-43f2-94e2-46742ab6b9b3,Abby,Androletti,40
81f7849b-ce85-4c16-8a1a-afdea330dbcf,Mab,Rameau,27
80626e72-dcdb-4e12-b0e1-f94e5ad2bfba,Holli,Stayte,38
a6acbf9a-64e6-4ca0-8e45-6acbb89368d6,Rhett,Pugh,19
e4870644-da02-404c-b787-229cf0bd3881,Peta,Badby,45
2199cf2a-716d-493e-a8a0-03fb0a2577b8,Yetty,Joynson,45
fc33802b-a08f-43d5-b6e6-b3aca1ed63c7,Gary,Bosnell,18
0c8840b6-fe12-4f3c-abf5-a984beeb01a6,Kleon,Cutcliffe,21
a4c2bd10-11ec-4074-b239-6dc5fce47896,Byran,Stainfield,33
5d8d0bfa-b79f-45b3-97c1-840668c69f48,Barny,Thomkins,19
7beeec10-167b-4649-a977-b1265fc13f3a,Rafaelita,Castagne,28
1a22754f-e91b-4d3a-a82d-035f49bebc4a,Katalin,Chaikovski,37
67380817-a756-466a-b96c-cd6c5c11a275,Eyde,Gosland,23
eb0f207c-dd11-42e5-b9dd-146de2fa68c4,Beale,Vanezis,44
c6595c8d-77e2-4678-a2ec-b764d7729bd1,Berkly,Sikorski,46
c9886110-1d6b-4262-b4f3-9cebc22303f6,Ethelred,Ailsbury,45
d5be877a-9acc-4818-b63b-6b64d8048292,Astra,Franckton,40
e4d209de-4bc6-4207-a757-1dfa5d8e24df,Enrique,Leete,50
061fd616-525f-4d43-b559-d4fa7d315e60,Jacquelin,Tyres,34
5ea6e833-02f4-40e3-b380-6aa74d2925ca,Wynne,Baylis,34
8627ba19-0468-4b7e-97fe-6df46a8bccc5,Letty,Featonby,18
81566d4b-ae2b-4921-8a1d-8f75af27a5ef,Amandi,Krienke,33
87012e79-ffce-4433-a031-d5f77587900f,Connie,Snashall,45
e2325de9-e8b5-4c9a-a7d3-46129f6f6abd,Lesly,Chandlar,18
56960fae-0d0b-4b7f-9111-ff41e03e6945,Nathalie,Guys,25
1d7b4d87-4dad-4e36-8077-6025a155d8ff,Lindsay,Tarzey,40
b261efd5-c35f-4992-932d-5c0d505d9bab,Maris,Wiffler,46
5c9996f2-4046-4ddc-86f1-2e8c98cf2f31,Kordula,Grigolashvill,42
dcb6d80a-6103-4386-a567-986374094879,Mahalia,Clemencon,22
9312f828-6f3f-4be2-9d5a-7df9c4eb226c,Dame,Kennard,19
f8438599-01e2-4940-a561-cbdc16932423,Seymour,Drinkeld,30
a0d06903-a5a8-40eb-878b-7803b9384d49,Veriee,Geare,42
8f01bd22-d954-45e1-bc3c-f2570210d061,Korry,Korneichuk,22
f4812005-bfc4-4e97-b3da-8561d08a038f,Tull,Wakeman,18
671128c7-2b52-48a0-ba03-7f205ccde119,Lucine,Vaines,41
f32cae74-2a75-4d67-8691-6c3fc8635e01,Sutherlan,Shevell,34
f198b088-19fa-4cda-b438-ecab427a0699,Cally,Chamberlin,25
67a1e673-708c-4d50-90bb-cc983bb37d4e,Angeline,Guerre,26
317f5a4a-a96f-420f-ac88-2afa2a6e46b2,Byrann,O'Halloran,21
a8a82651-453b-4189-8fa2-62e9a1189a7c,Lou,Woodyear,24
3765fd78-1e95-4ffe-937e-53d69b870ba7,Kristan,Arton,19
906befd2-674a-468c-b8b9-0239dd3fe7fb,Gaspar,Tully,32
80ef8966-3e97-4d30-add4-b78e5444872a,Tait,McFarlan,45
058174fc-cc67-4952-93f9-1fd2a6daf360,Clim,Maddox,28
27af79b6-f06b-4a49-bc84-1d6fee6a3ac2,Luise,Beathem,33
d90912da-bfe5-46d7-8381-7ed016eaf9fe,Ian,Vater,49
790386c3-45c2-4031-8d33-34d2534e46a0,Kennie,Congreave,31
55cfefb3-7634-4d94-a17f-51876860daa6,Barnaby,Craven,28
bfc0331a-1962-4b5a-b2fe-fb2907859b9f,Arnoldo,Baldin,27
8f9a95c7-f0c1-411a-a31e-36ec04913b40,Carol,Maghull,31
42a4b4c8-2bb0-4aad-b417-587e17db569f,Garald,Langmaid,32
4a89a9be-913c-4d86-aeeb-c9506ef332f2,Loree,Tapp,29
ae355393-3a90-4c11-b5da-d8fe5cd13d8c,Shaine,Sarge,37
9c12107d-3478-472e-93c0-dd9c91265852,Sanson,Brosch,43
94b866fe-bb9a-4983-9eeb-b2e6266a294a,Heath,Swindells,45
f422cd7b-3aa9-4ba3-8139-8f1e206426e9,Aylmer,Bouchier,32
b13148c0-4b63-4859-ae2c-c03a660ba98b,Zea,Hallitt,32
6c043d93-2fa8-4c61-9611-54eda3ac1d29,Kamila,Pizzey,47
c1c4c9cf-b84e-4a4a-89fe-ea9ee82eac76,Hillier,Ingliss,29
a69fc7fe-e3f3-4193-94df-b56ea2410c9c,Meggy,Hoff,31
e898baf4-45da-45c8-9ff7-18c7750e2930,Amalee,Rentelll,18
cd631cc6-319e-44de-817e-17e4c171a636,Jillian,Kettlestringes,36
49c01b68-4271-4065-be9a-c7762d4c3dec,Zaneta,Brendel,24
3ca6a26c-d86f-4f85-835c-b812659bb8a9,Stavro,Cavalier,42
50420fc3-8156-47ad-b4e4-8a994789c468,Zabrina,Brezlaw,38
35a772c1-40f2-4f19-aff4-e1fa484eb4c2,Robbi,Pedley,31
0f8bfc06-e7f0-437f-af70-6e87378f99c5,Federica,Gidney,41
e7ab85e0-e15a-4875-97cf-557ca06ea862,Hobie,Rutherford,22
4adac949-c3ab-4000-a727-9853411781e1,Chrotoem,Charer,28
fa7bf087-ef12-46ba-8925-dcdec62b98c3,Tine,Glyn,40
5b45836b-f5db-4c55-8e8e-e6832fa23f80,Shaine,Sabin,30
c5d0ff35-e173-44b5-a1d9-afaa5f07ebd6,Cherianne,Hillitt,19
668805c5-6308-4302-abef-ca2edb0ac9e2,Siffre,Ivers,47
afc6d39f-edbf-49d9-9726-b7626995199f,Creigh,Dulson,45
78db5c78-93ac-4171-95bc-991ea099d1d6,Urbano,Kienl,28
8c0458ca-928f-4cfb-b56f-df246a5323fc,Lenard,Dresse,45
9c76faba-3595-4945-99ea-fd0fdec4c025,Cleve,Botright,48
d379d10f-bfa2-417b-b5bd-0bc46d666759,Julianne,Gronaller,42
414a425d-ae45-444b-b107-7eb258af9f92,Aurelea,Tooby,43
e2e1e0a9-0faa-4935-b88d-217ecc87a813,Ambrosi,Bowlas,31
a8501b7e-b5d5-42e0-93d6-a469d7e96aa1,Stace,Salvage,40
01c9fbcb-2227-42d3-8290-a994889f2e26,Ellswerth,Redbourn,29
152af3b9-1e6a-4250-a984-9eed88afef64,Casi,Petriello,45
32b0e353-bfd5-47c9-af94-bd381fc0eede,Maxy,Dumbelton,22
40e580d6-a67e-43d7-bb98-6757bee51a36,Dene,Sign,45
f5550e73-697b-47a2-a2df-c80a530dcb49,Mortimer,Blanpein,26
bb347ee9-8522-43ce-b728-2d85ee6281df,Ogdan,Gromley,27
0606aaef-13e1-42ad-a9d4-3dcdeac8b12f,Sandye,Ivasyushkin,23
da9c1ad1-4aed-4be1-bce3-a01fe50c5b78,Gorden,Playden,41
22bfdd22-be26-4c46-807d-dc456e0318a1,Wynny,Poston,31
f7748e7e-18c4-47e3-8489-3cff086fd5ba,Mortimer,Challiss,37
edfb9e59-643f-4ac8-8292-a85212b5b14e,Enid,Pickerell,44
fa12577b-6f55-438e-b35a-854851896bf9,Prudi,Crichmer,22
cf1ea184-5be9-4c9a-aee8-bd0b84826c9a,Modesta,MacGiany,20
680f6b7a-95bf-4804-8f8f-f70da26e3dd3,Rasia,Tomaskov,41
08dfdb74-1d31-493a-98d2-3e3cc78d9544,Elke,Mattosoff,35
ce462e0b-22b5-4ab6-a45f-f7bc6ed62dfc,Dru,Sharland,39
fe87b7d7-bfd5-4359-861d-795548c0c1a3,Magda,Genever,31
4a61c6f9-ef8f-4575-8aec-424d46716837,Eric,Corse,38
612ccb05-61e1-44b5-8f27-e5084914a3d2,Nappy,Ducarne,23
44dfc830-1b00-4e9d-8792-b071036b6aea,Kendre,Maestro,39
15b6734b-d29a-4d03-a527-cd3e0cad62a8,Florencia,Letch,47
04a779d7-18fb-4596-b767-db28817c76a6,Dolorita,Nast,41
534094c2-37e3-4131-967f-aec8b57f1af0,Isa,Sooper,36
3fc575e2-61d2-45ac-af8d-d51c6ef21909,Rey,Finby,31
d01cce8c-2074-40a3-959b-051696db6e43,Bastian,Slimings,43
419ccaec-4cd1-4baf-b3b2-521176bbf2f7,Sallie,Wenman,27
cbeda62c-5f91-49fa-af3e-e2d9cfce25ef,Ferris,Deny,31
30fe74c5-8619-4f80-ba92-9b8e1906136e,Zenia,Gerrelts,50
5bffa67b-4231-4b76-b57e-e003e38c454c,Violetta,Loxton,26
30f623a5-0578-4ef6-8ffd-34c547acca5b,Solomon,Fellona,43
b61eeb71-90bb-4bd0-b3ee-098a6e5e64e5,Lydon,Brunsen,31
b8302e25-15be-450b-9390-ff5a91316cc6,Jozef,Gray,25
5ed51655-2588-4a65-953b-823905aa42dd,Dolly,Scoyne,18
435ff4e2-21c8-44ca-9f66-9ddf58c4b48f,Lissy,Rudgerd,39
6963439e-cfa8-47b8-93e4-190aac4530af,Cristy,Book,39
25f7c284-00d1-4256-828c-c85fe0fce336,Arv,Gooders,49
f60a7a6b-52ec-4bbc-a7fe-b455c86a136e,Alphonso,Geggie,27
695fe928-48de-45fe-a9aa-1cb4380c7e40,Grace,Dermott,48
fae4c838-ba97-4b65-8547-6440856fab14,Candide,Leroux,44
acc3daf8-6b01-4483-96db-1ec7a241b089,Laird,Curner,26
1e9732fc-f994-4dff-9147-76600a581ea5,Meghan,Portis,33
fe3d0124-d690-4297-ba4b-196fa4c2c45e,Gavin,Lissimore,38
9a0af095-4745-4a12-8cb0-9ea78ef6246a,Newton,Lared,47
17047df0-228b-412a-8ff6-50488ed3cb77,Brion,Corish,33
0cc072a5-eb04-40ca-be5c-67f439c05f2e,Venita,Davison,45
6be6149b-cf7b-40ba-9747-cecd4513c27f,Thorin,Priddie,41
96787028-7f19-46d5-8fa5-81eacf503305,Gizela,Czajkowski,29
51a4a26a-5e0e-43cf-a683-4a9d42db4028,Skippy,Sergeaunt,39
5de9bf52-87cd-479d-a4c2-329ce69029ec,Joeann,Athy,26
8d35df25-09cf-4126-8a50-2a3adc78306c,Maiga,Matthis,35
11940f63-4ad7-4c4a-b1a0-c74cb622fa2e,Pip,Chastel,48
b8f9c59d-3f1b-4672-adbf-c66711880fe2,Rutledge,Okenden,19
06d5cc06-9c7b-4818-8e3f-ee6b1efec249,Bryant,Roebottom,25
2211151a-eee2-4e0c-becf-862f159b88be,Lonny,Meiningen,34
24c1e60a-fafe-466e-a73d-12cf1400fd21,Harper,Koschke,39
2b210f66-bac5-443c-98b7-c47510835f39,Nessa,Gilhouley,45
72cc438b-c20a-42a6-aaf3-6f06ef75bdfb,Barrie,McKea,42
7c6c9341-96c6-4cd1-81c1-91417f226c60,Bing,Franchioni,18
bc5a8e16-1c58-4e93-9f43-84f1cbef9e72,Rafael,Rosenwald,31
e8c6479f-51d1-4eeb-b0a7-ba71a4d9344d,Henryetta,Newns,46
3c359d18-ecbd-4bbf-99d9-fc098ce15282,Eleanor,Tadlow,18
a4079eb7-5da8-4278-8175-c8adca348e30,Iona,Pindell,26
e888ce7d-50a3-429c-a41d-c3eca625f30c,Grete,Mosley,50
c5325de7-2550-4a0f-bc98-08e12e33f259,Antonie,Skiggs,47
bcde4f17-77cb-41e1-81a9-8c1fa2bbb116,Opal,Lamminam,21
7b4d2d73-1335-4b5b-9cb0-eacd079d3a85,Clair,Queyos,22
63670005-3143-4c1f-8e4f-9437ca153389,Gladys,Juschka,46
af853801-96fd-4cba-977b-711f59c7e703,Clemence,Baukham,37
de335f8b-5000-4e3d-a59e-ceee488017b0,Siobhan,Menear,42
433fad8c-6cd8-47a3-9e7a-b5ea8158b99f,Mariska,Hazelgrove,39
cfc8c453-bbb7-4593-aaef-fa3b563f6728,Kristyn,Decker,24
fa00597f-7fe0-48ff-8fc3-323b6eb899c9,Roosevelt,Dalton,48
bb82ff82-868a-479f-8222-52c7cf05b444,Harold,Yurkin,50
e9efc157-5b8c-4f09-b6d7-26a6e412b396,Al,Witcher,30
3ab63433-32a9-4b3c-9f50-b8ac9d45a43d,Trixi,Mcettrick,25
634e9699-560a-47b2-8484-19a4e1436d44,Tyler,Murrigan,39
38e568fd-9f26-4b48-8e08-7ad03f346690,Beau,Jimenez,47
975c8aab-0686-4d3a-aea1-a1dfdfe82531,Hadria,Tetsall,21
54cc28cb-7d36-4352-a4af-37ca04bdc2e0,Cloe,Orwin,29
be2136e9-faf8-4c18-8d74-a9fc0d20762f,Fancie,Salliere,34
fff0ffb7-2e46-48ef-9fa0-ea85d4ebccec,Biddy,Scanderet,42
e16abebd-4620-4c40-a34f-0cda7e47d5a4,Filberte,Yannoni,48
39a78723-d3c1-4796-bb60-0b9b55ebad3b,Larissa,Van der Krui,36
284ef926-ca9d-4640-91fc-688c6e84f5c9,Mari,Grunson,32
c16684f9-a56f-4f4d-a054-d9b028eb9962,Nickie,Eddins,49
ebfe76d2-977d-4893-b417-8a2ba3e6fbec,Alex,Flitcroft,48
83ceae21-0bb8-488f-9c02-c26165e3aaa4,Leonerd,Austick,26
b1b68932-2c38-4069-9c0c-bc19f4bdbe93,Dolley,Gason,26
6eaa630a-29bd-4602-81e3-ed0ef61df3ff,Kendall,Ginnell,34
113f5f52-38dc-42ce-84b6-25ffe8e24539,Lilith,Becom,29
adbf3c7e-9d77-4ca9-ae10-b1ce2c5ed81b,Glen,Adney,31
bcde267f-78b7-4815-802d-ec1e2ca6d2c0,Itch,Heineking,46
5a68c04d-b222-42e8-a1be-3b08611b3ad1,Brooks,Maus,26
d91b32a2-b795-453c-b85a-7e96e958230e,Dael,MacEveley,34
94dd6436-1504-4c11-b446-ad75e2f8bcc3,Ilsa,Alelsandrowicz,40
c55ef50b-959f-441d-8782-410997787da3,Fina,Belhomme,41
962441ee-8667-43c4-b9d6-e3c9b5246f60,Seth,Pollendine,28
f442f13b-1e92-4091-875e-0171292ca7c5,Rickie,Dearnaly,46
1a9dc3ac-dc2a-4468-b206-652db66d7622,Hugo,Omond,26
7605e584-e73a-4d56-98c5-b2dca69df5b8,Cass,Roistone,38
12a3e37b-e0c2-4794-b67a-e39d9d591f92,Ab,Jellings,43
2435504f-fe9d-4211-b238-5cc7e27e5898,Reece,Gregolin,30
373325d7-b6a3-47b0-9fe8-894df5850516,Ruddy,Dunican,32
55280d5b-d393-49a0-8d0c-86bab8b395b1,Alyosha,Gippes,32
a1bd8b39-97cd-4b0a-8252-b0404dc87715,Johnathan,Bernat,30
52e42e49-2ab0-477e-8b08-0cf065a88aee,Clemmy,McAvin,32
ebfc132b-2d79-487e-998d-4d7e02f25120,Cleopatra,Bligh,33
4c04127f-f411-4976-81c8-2142d4c07c95,Kyla,Pittem,22
54bf6c45-d6c2-49a9-abc9-d8d3a3c032e0,Andreana,Besemer,35
4bdb06f5-ca21-4abb-81b8-d3db7c8a0c54,Maryl,Johnigan,25
7ed5b8b6-e2d8-45bf-a838-2c9caad1b2bb,Joleen,Grayshan,29
b68a694a-3b71-4982-a0b4-aee01b3f2fc3,Claresta,Chesswas,24
3497c800-08e1-4bd8-a7a6-c3d74cc47ca4,Maxie,O'Longain,40
ff572732-a170-41aa-a477-8414fd0d5a16,Torey,Banting,43
82a867f2-a594-499a-8392-996bbb65cc75,Beilul,Turbern,28
6148a83c-4166-41ca-b7db-2062c57ff230,Feodor,Weir,29
dfd30fd5-68af-4489-bd99-e092a4426b8c,Shem,Joll,46
7fce5082-16b2-4f7e-a225-b750f68c5bdd,Neil,Perigoe,27
f1308d6f-31e2-410b-a2e7-95b446ba4b63,Arnoldo,Dyton,28
5d4b80d0-f295-4b83-8841-2fdc725856d3,Amalie,Rodie,35
314689b6-00e0-4b91-a3d9-1199c1d0647c,Osbourn,Tovey,20
41383917-c7b9-415c-851e-64ffded3f079,Alex,Carstairs,40
f34f3843-128f-49d4-a303-d1508d27d8e0,Jecho,Bothram,42
aa0d36bc-a482-4c00-9fb5-3c28070ad885,Gerhardt,Sollowaye,36
db52712a-f544-411f-9446-5c01f8c5ae9a,Stevy,Bourke,41
4cbc9749-4917-4613-ac7d-550ac5769c0e,Yankee,Longshaw,25
bc3829ee-9985-4bcf-b8ec-1d625f4545d0,Carita,Lennie,25
39bf9e21-a231-4c9d-a6ca-7cf6ae729924,Annabell,Whyteman,30
f571c0c0-6781-4633-aa2a-e2888dd3e5e2,Winny,De Brett,26
f788a9d0-f9fe-49bb-801d-297496d6e443,Drusie,Goalby,29
8a6310dc-844f-4da4-b745-73a5f6a7e8f7,Stanleigh,Churching,24
8d460f9b-440a-4dab-9e76-51f52d89e835,Kristen,Fatharly,18
9d6ac09b-5629-41ac-a1e4-db208226fed4,Jessamine,Garrettson,44
78e4fcee-fefd-46b2-8ef7-5076e3890312,Ira,Hearl,35
54a69fa2-34ea-44f2-9500-5393f01be65a,Doy,Judkins,28
4fe82687-89ec-4224-98c1-665e87c2a69a,Philomena,de Clerk,34
8cfc66f2-3622-44c4-86e4-74f340d622a6,Rozella,Tuma,50
4f708720-8143-4142-a45d-15a49a04723f,Gran,Giraux,21
13e6ddd2-d2d9-4d82-aaf0-9fe7114c5ee6,Karen,Hambleton,31
b223a62c-b360-460c-87ec-457d85a8c3e1,Stanislaus,Lampkin,34
d0ac20c1-58b3-47ee-9b24-4bfb7d039eff,Marsh,Morgan,41
0d2af68d-3f13-434a-99f6-95c07da4779f,Rudie,Iredale,41
5c8418e8-9bbb-413b-b9b1-75b4cce9774a,Bathsheba,Shayes,39
355361e3-5850-46ad-8674-da2751fdd874,Jakie,Levitt,36
6c8c080d-adf2-4ff9-b4a5-5a1a387aea1a,Fletch,Hyde,22
1a004ce6-c872-4d67-9bb8-20bb5aad8999,Trenna,McCorkell,49
acdc92f6-f405-48ee-8da9-665cb13b9e10,Hakim,Quinion,19
5b93796a-3b51-490c-a1cf-ad8f2e3fadcd,Francyne,Betteriss,49
271a7ce8-292f-4685-8b24-09294dfd4384,Mac,Saffon,21
12a3d963-10ee-4945-9795-7886d0d95615,Jeralee,Skells,39
8c74c146-4bcb-421a-a03b-6fd655743daf,Bo,Tesche,35
6604e993-8d3f-4cf0-81d5-16756143d963,Craggy,Gaskamp,44
6d8df654-66bd-4900-9b03-a4459562f94a,Federico,Blezard,21
db80c432-610a-4358-b18f-621800e2df80,Yul,Rigeby,24
e4938b69-aed5-49b7-aed2-fae9393a13bc,Kennedy,Grogan,29
8766e6af-984a-4956-b72f-0459e96d7272,Garvy,Brumpton,27
d59b9324-0b36-4e4a-92d8-8fe78439b5e2,Melessa,Jewar,39
e9dc9b84-b88e-48e0-a421-c20653374d01,Leanora,MacFadzean,44
4d4ec8c5-2df5-442a-bbc5-1bc8b40a7c9a,Ethel,Escofier,38
a19f868c-8410-4dde-86ad-72861c69b6b3,Morganica,Tyas,41
8065b73c-50a4-4bb7-b309-6b64ba4b4ed7,Heddie,de Leon,47
031ee781-985c-445b-91fb-a9d958bd828c,Jerome,Timblett,46
6c2801ef-5396-4ec3-baff-436a81b2b480,Edyth,Strowger,20
92365986-cd77-4953-8b51-b57b15cf63f3,Agace,Waison,49
31dc53de-4c15-45bc-ad4a-3f8bff95952c,Janetta,Wilber,21
e1cb1ad2-22e4-47bb-ada4-3c4a1c0ed480,Sharlene,Faircliffe,29
255a9e2e-f627-4a42-b2e1-55ef26e6c6e9,Candace,Whardley,30
231b3e6d-9dda-4882-b58e-d33fc60bb4cf,Pansie,Faust,44
798d48e1-6d05-4180-8798-9a0f2e38a2cd,Madel,Godwyn,29
17146ad1-279e-4b6d-8b9a-f2925e7f66c9,Elspeth,Mc Cahey,26
3ad9f17e-a00e-4928-ad38-daa63eb84c66,Leonidas,Thornham,36
893d063c-c86b-4642-85f8-30b0c988622c,Leeann,Timbridge,22
a859b196-8a1b-49a5-874c-b25e562c3f38,Bartholomew,Lupson,37
5546c6ff-7258-413b-ae4c-35ed8c92c254,Tab,Parkhouse,43
e23f6c7b-d74c-4a8d-9eb8-053b7fa9914e,Trisha,Ferrers,19
470af911-3408-4e96-8e7c-af7b30e3e157,Anstice,Casel,38
1c2b894c-42db-4d2e-b3a3-2e5bb8812794,Candy,Dreger,27
e1492944-742f-4613-82ac-3557c0628e78,Vaughan,Gorman,29
049bca2a-83d7-4ec1-bfde-ecbe979fa016,Bonnibelle,Knibley,34
51ba8890-d52b-4da7-b0c5-a4346e14ffc1,Haley,Sermin,28
5193ce66-ea55-4df1-ba81-65ad49ab803a,Rabbi,Gurley,35
4e7e66d9-e8a6-4541-be0a-71e53cfd8c15,Valida,Druett,21
51617a5d-8de9-46b1-8d2e-5e581740f5ee,Mario,Gentle,42
3492c97a-4fdc-4853-b562-302552af52c0,Clarinda,Leathe,21
a46f8b8f-10ef-428a-8704-c713c9b1233c,Wallache,Silwood,34
dfc555be-8212-4128-bda9-131bb222fae0,Vale,Sandeford,50
9842f303-5162-4d04-9b7e-9bee4d6a6f74,Nigel,Clews,21
2bccc8d4-31e0-46a0-880a-fb5ddedae54b,Peterus,Wainwright,23
ada0ab68-ddb6-4f9b-86cb-8deddfce00c1,Meier,Gallymore,30
c294727b-7a5a-4114-8de6-27fd693038a6,Dodi,Orrow,27
3c35b34b-88d3-4fbb-9437-73dc5b0fe9ab,Francene,Glaserman,37
4f0f2828-db55-40b4-8dc5-622dca4ae916,Bearnard,Klambt,31
88d08c20-ebe6-4c1f-b80d-4216a90f4ebd,Dmitri,Botten,31
4ce67436-bc55-4704-bfa4-66d54e6ccdbb,Roseanna,Hestrop,44
32b92d91-4ef1-4b65-865a-85127c90a298,Jojo,Lyfe,48
e926062a-003a-4e19-a9ba-809a24def01d,Sargent,Newvill,36
2784aacb-ad6c-4f8a-aee5-c41b00bb6f7b,Siouxie,Bawden,26
67901036-e45f-47c2-9ea1-abe1468cdf73,Bastian,Andreassen,46
32d9cb0a-44e7-4ad1-8c62-cbed1398bd74,Arlyne,Grinnov,38
69b8ece8-5229-4494-ab62-3b5b67f276b8,Rurik,Chesney,38
78f40d63-9269-4d3b-904c-29c8aff10cb9,Yoshi,Berrick,23
d9a2638a-76b0-4836-b7d5-b3830c707071,Jeanine,Hollier,44
8e568b0c-e851-4433-a518-b2c602908d90,Filberto,Shawell,38
e7beef16-30f0-4b44-919f-eb91d5788797,Randa,Ball,25
5a6b23ae-1f77-4292-8d20-9d9516be35a6,Edgard,Colvine,34
5d99f990-7c66-418b-87f9-febf27df3c81,Arlan,Brandham,46
14fe2d51-87cc-4375-ac2d-f207321b3758,Genvieve,Durram,40
b5f31eac-b5a6-4a46-93d4-5d3c0f52f4a2,Jordanna,McLoughlin,20
1d00a668-ea99-4495-899f-c206806565c1,Theodore,Handaside,49
36c21669-819d-480f-af4f-6dccdecb5934,Si,Braniff,43
ce069458-a92e-43e1-8380-feb988712b29,Karlene,Vardy,24
